^C:\Users\pag\Desktop\projetoTese\HybridRenderer\HybridRenderer\HybridRenderer.vcxproj
C:\Users\pag\Desktop\projetoTese\HybridRenderer\x64\Release\HybridRenderer.ipdb
C:\Users\pag\Desktop\projetoTese\HybridRenderer\x64\Release\HybridRenderer.iobj
^C:\Users\pag\Desktop\projetoTese\HybridRenderer\HybridRenderer\HybridRenderer.vcxproj
C:\Users\pag\Desktop\projetoTese\HybridRenderer\x64\Release\HybridRenderer.ipdb
C:\Users\pag\Desktop\projetoTese\HybridRenderer\x64\Release\HybridRenderer.iobj
^C:\Users\pag\Desktop\projetoTese\HybridRenderer\HybridRenderer\HybridRenderer.vcxproj
C:\Users\pag\Desktop\projetoTese\HybridRenderer\x64\Release\HybridRenderer.ipdb
C:\Users\pag\Desktop\projetoTese\HybridRenderer\x64\Release\HybridRenderer.iobj
^C:\Users\pag\Desktop\projetoTese\HybridRenderer\HybridRenderer\HybridRenderer.vcxproj
C:\Users\pag\Desktop\projetoTese\HybridRenderer\x64\Release\HybridRenderer.ipdb
C:\Users\pag\Desktop\projetoTese\HybridRenderer\x64\Release\HybridRenderer.iobj
^C:\Users\pag\Desktop\projetoTese\HybridRenderer\HybridRenderer\HybridRenderer.vcxproj
C:\Users\pag\Desktop\projetoTese\HybridRenderer\x64\Release\HybridRenderer.ipdb
C:\Users\pag\Desktop\projetoTese\HybridRenderer\x64\Release\HybridRenderer.iobj
^C:\Users\pag\Desktop\projetoTese\HybridRenderer\HybridRenderer\HybridRenderer.vcxproj
C:\Users\pag\Desktop\projetoTese\HybridRenderer\x64\Release\HybridRenderer.ipdb
C:\Users\pag\Desktop\projetoTese\HybridRenderer\x64\Release\HybridRenderer.iobj
^C:\Users\pag\Desktop\projetoTese\HybridRenderer\HybridRenderer\HybridRenderer.vcxproj
C:\Users\pag\Desktop\projetoTese\HybridRenderer\x64\Release\HybridRenderer.ipdb
C:\Users\pag\Desktop\projetoTese\HybridRenderer\x64\Release\HybridRenderer.iobj
^C:\Users\pag\Desktop\projetoTese\HybridRenderer\HybridRenderer\HybridRenderer.vcxproj
C:\Users\pag\Desktop\projetoTese\HybridRenderer\x64\Release\HybridRenderer.ipdb
C:\Users\pag\Desktop\projetoTese\HybridRenderer\x64\Release\HybridRenderer.iobj
^C:\Users\pag\Desktop\projetoTese\HybridRenderer\HybridRenderer\HybridRenderer.vcxproj
C:\Users\pag\Desktop\projetoTese\HybridRenderer\x64\Release\HybridRenderer.ipdb
C:\Users\pag\Desktop\projetoTese\HybridRenderer\x64\Release\HybridRenderer.iobj
^C:\Users\pag\Desktop\projetoTese\HybridRenderer\HybridRenderer\HybridRenderer.vcxproj
C:\Users\pag\Desktop\projetoTese\HybridRenderer\x64\Release\HybridRenderer.ipdb
C:\Users\pag\Desktop\projetoTese\HybridRenderer\x64\Release\HybridRenderer.iobj
^C:\Users\pag\Desktop\projetoTese\HybridRenderer\HybridRenderer\HybridRenderer.vcxproj
C:\Users\pag\Desktop\projetoTese\HybridRenderer\x64\Release\HybridRenderer.ipdb
C:\Users\pag\Desktop\projetoTese\HybridRenderer\x64\Release\HybridRenderer.iobj
^C:\Users\pag\Desktop\projetoTese\HybridRenderer\HybridRenderer\HybridRenderer.vcxproj
C:\Users\pag\Desktop\projetoTese\HybridRenderer\x64\Release\HybridRenderer.ipdb
C:\Users\pag\Desktop\projetoTese\HybridRenderer\x64\Release\HybridRenderer.iobj
^C:\Users\pag\Desktop\projetoTese\HybridRenderer\HybridRenderer\HybridRenderer.vcxproj
C:\Users\pag\Desktop\projetoTese\HybridRenderer\x64\Release\HybridRenderer.ipdb
C:\Users\pag\Desktop\projetoTese\HybridRenderer\x64\Release\HybridRenderer.iobj
^C:\Users\pag\Desktop\projetoTese\HybridRenderer\HybridRenderer\HybridRenderer.vcxproj
C:\Users\pag\Desktop\projetoTese\HybridRenderer\x64\Release\HybridRenderer.ipdb
C:\Users\pag\Desktop\projetoTese\HybridRenderer\x64\Release\HybridRenderer.iobj
^C:\Users\pag\Desktop\projetoTese\HybridRenderer\HybridRenderer\HybridRenderer.vcxproj
C:\Users\pag\Desktop\projetoTese\HybridRenderer\x64\Release\HybridRenderer.ipdb
C:\Users\pag\Desktop\projetoTese\HybridRenderer\x64\Release\HybridRenderer.iobj
^C:\Users\pag\Desktop\projetoTese\HybridRenderer\HybridRenderer\HybridRenderer.vcxproj
C:\Users\pag\Desktop\projetoTese\HybridRenderer\x64\Release\HybridRenderer.ipdb
C:\Users\pag\Desktop\projetoTese\HybridRenderer\x64\Release\HybridRenderer.iobj
^C:\Users\pag\Desktop\projetoTese\HybridRenderer\HybridRenderer\HybridRenderer.vcxproj
C:\Users\pag\Desktop\projetoTese\HybridRenderer\x64\Release\HybridRenderer.ipdb
C:\Users\pag\Desktop\projetoTese\HybridRenderer\x64\Release\HybridRenderer.iobj
^C:\Users\pag\Desktop\projetoTese\HybridRenderer\HybridRenderer\HybridRenderer.vcxproj
C:\Users\pag\Desktop\projetoTese\HybridRenderer\x64\Release\HybridRenderer.ipdb
C:\Users\pag\Desktop\projetoTese\HybridRenderer\x64\Release\HybridRenderer.iobj
^C:\Users\pag\Desktop\projetoTese\HybridRenderer\HybridRenderer\HybridRenderer.vcxproj
C:\Users\pag\Desktop\projetoTese\HybridRenderer\x64\Release\HybridRenderer.ipdb
C:\Users\pag\Desktop\projetoTese\HybridRenderer\x64\Release\HybridRenderer.iobj
^C:\Users\pag\Desktop\projetoTese\HybridRenderer\HybridRenderer\HybridRenderer.vcxproj
C:\Users\pag\Desktop\projetoTese\HybridRenderer\x64\Release\HybridRenderer.ipdb
C:\Users\pag\Desktop\projetoTese\HybridRenderer\x64\Release\HybridRenderer.iobj
^C:\Users\pag\Desktop\projetoTese\HybridRenderer\HybridRenderer\HybridRenderer.vcxproj
C:\Users\pag\Desktop\projetoTese\HybridRenderer\x64\Release\HybridRenderer.ipdb
C:\Users\pag\Desktop\projetoTese\HybridRenderer\x64\Release\HybridRenderer.iobj
^C:\Users\pag\Desktop\projetoTese\HybridRenderer\HybridRenderer\HybridRenderer.vcxproj
C:\Users\pag\Desktop\projetoTese\HybridRenderer\x64\Release\HybridRenderer.ipdb
C:\Users\pag\Desktop\projetoTese\HybridRenderer\x64\Release\HybridRenderer.iobj
^C:\Users\pag\Desktop\projetoTese\HybridRenderer\HybridRenderer\HybridRenderer.vcxproj
C:\Users\pag\Desktop\projetoTese\HybridRenderer\x64\Release\HybridRenderer.ipdb
C:\Users\pag\Desktop\projetoTese\HybridRenderer\x64\Release\HybridRenderer.iobj
^C:\Users\pag\Desktop\projetoTese\HybridRenderer\HybridRenderer\HybridRenderer.vcxproj
C:\Users\pag\Desktop\projetoTese\HybridRenderer\x64\Release\HybridRenderer.ipdb
C:\Users\pag\Desktop\projetoTese\HybridRenderer\x64\Release\HybridRenderer.iobj
^C:\Users\pag\Desktop\projetoTese\HybridRenderer\HybridRenderer\HybridRenderer.vcxproj
C:\Users\pag\Desktop\projetoTese\HybridRenderer\x64\Release\HybridRenderer.ipdb
C:\Users\pag\Desktop\projetoTese\HybridRenderer\x64\Release\HybridRenderer.iobj
^C:\Users\pag\Desktop\projetoTese\HybridRenderer\HybridRenderer\HybridRenderer.vcxproj
C:\Users\pag\Desktop\projetoTese\HybridRenderer\x64\Release\HybridRenderer.ipdb
C:\Users\pag\Desktop\projetoTese\HybridRenderer\x64\Release\HybridRenderer.iobj
^C:\Users\pag\Desktop\projetoTese\HybridRenderer\HybridRenderer\HybridRenderer.vcxproj
C:\Users\pag\Desktop\projetoTese\HybridRenderer\x64\Release\HybridRenderer.ipdb
C:\Users\pag\Desktop\projetoTese\HybridRenderer\x64\Release\HybridRenderer.iobj
^C:\Users\pag\Desktop\projetoTese\HybridRenderer\HybridRenderer\HybridRenderer.vcxproj
C:\Users\pag\Desktop\projetoTese\HybridRenderer\x64\Release\HybridRenderer.ipdb
C:\Users\pag\Desktop\projetoTese\HybridRenderer\x64\Release\HybridRenderer.iobj
^C:\Users\pag\Desktop\projetoTese\HybridRenderer\HybridRenderer\HybridRenderer.vcxproj
C:\Users\pag\Desktop\projetoTese\HybridRenderer\x64\Release\HybridRenderer.ipdb
C:\Users\pag\Desktop\projetoTese\HybridRenderer\x64\Release\HybridRenderer.iobj
^C:\Users\pag\Desktop\projetoTese\HybridRenderer\HybridRenderer\HybridRenderer.vcxproj
C:\Users\pag\Desktop\projetoTese\HybridRenderer\x64\Release\HybridRenderer.ipdb
C:\Users\pag\Desktop\projetoTese\HybridRenderer\x64\Release\HybridRenderer.iobj
^C:\Users\pag\Desktop\projetoTese\HybridRenderer\HybridRenderer\HybridRenderer.vcxproj
C:\Users\pag\Desktop\projetoTese\HybridRenderer\x64\Release\HybridRenderer.ipdb
C:\Users\pag\Desktop\projetoTese\HybridRenderer\x64\Release\HybridRenderer.iobj
^C:\Users\pag\Desktop\projetoTese\HybridRenderer\HybridRenderer\HybridRenderer.vcxproj
C:\Users\pag\Desktop\projetoTese\HybridRenderer\x64\Release\HybridRenderer.ipdb
C:\Users\pag\Desktop\projetoTese\HybridRenderer\x64\Release\HybridRenderer.iobj
^C:\Users\pag\Desktop\projetoTese\HybridRenderer\HybridRenderer\HybridRenderer.vcxproj
C:\Users\pag\Desktop\projetoTese\HybridRenderer\x64\Release\HybridRenderer.ipdb
C:\Users\pag\Desktop\projetoTese\HybridRenderer\x64\Release\HybridRenderer.iobj
^C:\Users\pag\Desktop\projetoTese\HybridRenderer\HybridRenderer\HybridRenderer.vcxproj
C:\Users\pag\Desktop\projetoTese\HybridRenderer\x64\Release\HybridRenderer.ipdb
C:\Users\pag\Desktop\projetoTese\HybridRenderer\x64\Release\HybridRenderer.iobj
^C:\Users\pag\Desktop\projetoTese\HybridRenderer\HybridRenderer\HybridRenderer.vcxproj
C:\Users\pag\Desktop\projetoTese\HybridRenderer\x64\Release\HybridRenderer.ipdb
C:\Users\pag\Desktop\projetoTese\HybridRenderer\x64\Release\HybridRenderer.iobj
^C:\Users\pag\Desktop\projetoTese\HybridRenderer\HybridRenderer\HybridRenderer.vcxproj
C:\Users\pag\Desktop\projetoTese\HybridRenderer\x64\Release\HybridRenderer.ipdb
C:\Users\pag\Desktop\projetoTese\HybridRenderer\x64\Release\HybridRenderer.iobj
^C:\Users\pag\Desktop\projetoTese\HybridRenderer\HybridRenderer\HybridRenderer.vcxproj
C:\Users\pag\Desktop\projetoTese\HybridRenderer\x64\Release\HybridRenderer.ipdb
C:\Users\pag\Desktop\projetoTese\HybridRenderer\x64\Release\HybridRenderer.iobj
^C:\Users\pag\Desktop\projetoTese\HybridRenderer\HybridRenderer\HybridRenderer.vcxproj
C:\Users\pag\Desktop\projetoTese\HybridRenderer\x64\Release\HybridRenderer.ipdb
C:\Users\pag\Desktop\projetoTese\HybridRenderer\x64\Release\HybridRenderer.iobj
^C:\Users\pag\Desktop\projetoTese\HybridRenderer\HybridRenderer\HybridRenderer.vcxproj
C:\Users\pag\Desktop\projetoTese\HybridRenderer\x64\Release\HybridRenderer.ipdb
C:\Users\pag\Desktop\projetoTese\HybridRenderer\x64\Release\HybridRenderer.iobj
^C:\Users\pag\Desktop\projetoTese\HybridRenderer\HybridRenderer\HybridRenderer.vcxproj
C:\Users\pag\Desktop\projetoTese\HybridRenderer\x64\Release\HybridRenderer.ipdb
C:\Users\pag\Desktop\projetoTese\HybridRenderer\x64\Release\HybridRenderer.iobj
^C:\Users\pag\Desktop\projetoTese\HybridRenderer\HybridRenderer\HybridRenderer.vcxproj
C:\Users\pag\Desktop\projetoTese\HybridRenderer\x64\Release\HybridRenderer.ipdb
C:\Users\pag\Desktop\projetoTese\HybridRenderer\x64\Release\HybridRenderer.iobj
^C:\Users\pag\Desktop\projetoTese\HybridRenderer\HybridRenderer\HybridRenderer.vcxproj
C:\Users\pag\Desktop\projetoTese\HybridRenderer\x64\Release\HybridRenderer.ipdb
C:\Users\pag\Desktop\projetoTese\HybridRenderer\x64\Release\HybridRenderer.iobj
^C:\Users\pag\Desktop\projetoTese\HybridRenderer\HybridRenderer\HybridRenderer.vcxproj
C:\Users\pag\Desktop\projetoTese\HybridRenderer\x64\Release\HybridRenderer.ipdb
C:\Users\pag\Desktop\projetoTese\HybridRenderer\x64\Release\HybridRenderer.iobj
^C:\Users\pag\Desktop\projetoTese\HybridRenderer\HybridRenderer\HybridRenderer.vcxproj
C:\Users\pag\Desktop\projetoTese\HybridRenderer\x64\Release\HybridRenderer.ipdb
C:\Users\pag\Desktop\projetoTese\HybridRenderer\x64\Release\HybridRenderer.iobj
^C:\Users\pag\Desktop\projetoTese\HybridRenderer\HybridRenderer\HybridRenderer.vcxproj
C:\Users\pag\Desktop\projetoTese\HybridRenderer\x64\Release\HybridRenderer.ipdb
C:\Users\pag\Desktop\projetoTese\HybridRenderer\x64\Release\HybridRenderer.iobj
^C:\Users\pag\Desktop\projetoTese\HybridRenderer\HybridRenderer\HybridRenderer.vcxproj
C:\Users\pag\Desktop\projetoTese\HybridRenderer\x64\Release\HybridRenderer.ipdb
C:\Users\pag\Desktop\projetoTese\HybridRenderer\x64\Release\HybridRenderer.iobj
^C:\Users\pag\Desktop\projetoTese\HybridRenderer\HybridRenderer\HybridRenderer.vcxproj
C:\Users\pag\Desktop\projetoTese\HybridRenderer\x64\Release\HybridRenderer.ipdb
C:\Users\pag\Desktop\projetoTese\HybridRenderer\x64\Release\HybridRenderer.iobj
^C:\Users\pag\Desktop\projetoTese\HybridRenderer\HybridRenderer\HybridRenderer.vcxproj
C:\Users\pag\Desktop\projetoTese\HybridRenderer\x64\Release\HybridRenderer.ipdb
C:\Users\pag\Desktop\projetoTese\HybridRenderer\x64\Release\HybridRenderer.iobj
^C:\Users\pag\Desktop\projetoTese\HybridRenderer\HybridRenderer\HybridRenderer.vcxproj
C:\Users\pag\Desktop\projetoTese\HybridRenderer\x64\Release\HybridRenderer.ipdb
C:\Users\pag\Desktop\projetoTese\HybridRenderer\x64\Release\HybridRenderer.iobj
^C:\Users\pag\Desktop\projetoTese\HybridRenderer\HybridRenderer\HybridRenderer.vcxproj
C:\Users\pag\Desktop\projetoTese\HybridRenderer\x64\Release\HybridRenderer.ipdb
C:\Users\pag\Desktop\projetoTese\HybridRenderer\x64\Release\HybridRenderer.iobj
^C:\Users\pag\Desktop\projetoTese\HybridRenderer\HybridRenderer\HybridRenderer.vcxproj
C:\Users\pag\Desktop\projetoTese\HybridRenderer\x64\Release\HybridRenderer.ipdb
C:\Users\pag\Desktop\projetoTese\HybridRenderer\x64\Release\HybridRenderer.iobj
^C:\Users\pag\Desktop\projetoTese\HybridRenderer\HybridRenderer\HybridRenderer.vcxproj
C:\Users\pag\Desktop\projetoTese\HybridRenderer\x64\Release\HybridRenderer.ipdb
C:\Users\pag\Desktop\projetoTese\HybridRenderer\x64\Release\HybridRenderer.iobj
^C:\Users\pag\Desktop\projetoTese\HybridRenderer\HybridRenderer\HybridRenderer.vcxproj
C:\Users\pag\Desktop\projetoTese\HybridRenderer\x64\Release\HybridRenderer.ipdb
C:\Users\pag\Desktop\projetoTese\HybridRenderer\x64\Release\HybridRenderer.iobj
^C:\Users\pag\Desktop\projetoTese\HybridRenderer\HybridRenderer\HybridRenderer.vcxproj
C:\Users\pag\Desktop\projetoTese\HybridRenderer\x64\Release\HybridRenderer.ipdb
C:\Users\pag\Desktop\projetoTese\HybridRenderer\x64\Release\HybridRenderer.iobj
^C:\Users\pag\Desktop\projetoTese\HybridRenderer\HybridRenderer\HybridRenderer.vcxproj
C:\Users\pag\Desktop\projetoTese\HybridRenderer\x64\Release\HybridRenderer.ipdb
C:\Users\pag\Desktop\projetoTese\HybridRenderer\x64\Release\HybridRenderer.iobj
^C:\Users\pag\Desktop\projetoTese\HybridRenderer\HybridRenderer\HybridRenderer.vcxproj
C:\Users\pag\Desktop\projetoTese\HybridRenderer\x64\Release\HybridRenderer.ipdb
C:\Users\pag\Desktop\projetoTese\HybridRenderer\x64\Release\HybridRenderer.iobj
^C:\Users\pag\Desktop\projetoTese\HybridRenderer\HybridRenderer\HybridRenderer.vcxproj
C:\Users\pag\Desktop\projetoTese\HybridRenderer\x64\Release\HybridRenderer.ipdb
C:\Users\pag\Desktop\projetoTese\HybridRenderer\x64\Release\HybridRenderer.iobj
^C:\Users\pag\Desktop\projetoTese\HybridRenderer\HybridRenderer\HybridRenderer.vcxproj
C:\Users\pag\Desktop\projetoTese\HybridRenderer\x64\Release\HybridRenderer.ipdb
C:\Users\pag\Desktop\projetoTese\HybridRenderer\x64\Release\HybridRenderer.iobj
^C:\Users\pag\Desktop\projetoTese\HybridRenderer\HybridRenderer\HybridRenderer.vcxproj
C:\Users\pag\Desktop\projetoTese\HybridRenderer\x64\Release\HybridRenderer.ipdb
C:\Users\pag\Desktop\projetoTese\HybridRenderer\x64\Release\HybridRenderer.iobj
^C:\Users\pag\Desktop\projetoTese\HybridRenderer\HybridRenderer\HybridRenderer.vcxproj
C:\Users\pag\Desktop\projetoTese\HybridRenderer\x64\Release\HybridRenderer.ipdb
C:\Users\pag\Desktop\projetoTese\HybridRenderer\x64\Release\HybridRenderer.iobj
^C:\Users\pag\Desktop\projetoTese\HybridRenderer\HybridRenderer\HybridRenderer.vcxproj
C:\Users\pag\Desktop\projetoTese\HybridRenderer\x64\Release\HybridRenderer.ipdb
C:\Users\pag\Desktop\projetoTese\HybridRenderer\x64\Release\HybridRenderer.iobj
^C:\Users\pag\Desktop\projetoTese\HybridRenderer\HybridRenderer\HybridRenderer.vcxproj
C:\Users\pag\Desktop\projetoTese\HybridRenderer\x64\Release\HybridRenderer.ipdb
C:\Users\pag\Desktop\projetoTese\HybridRenderer\x64\Release\HybridRenderer.iobj
^C:\Users\pag\Desktop\projetoTese\HybridRenderer\HybridRenderer\HybridRenderer.vcxproj
C:\Users\pag\Desktop\projetoTese\HybridRenderer\x64\Release\HybridRenderer.ipdb
C:\Users\pag\Desktop\projetoTese\HybridRenderer\x64\Release\HybridRenderer.iobj
^C:\Users\pag\Desktop\projetoTese\HybridRenderer\HybridRenderer\HybridRenderer.vcxproj
C:\Users\pag\Desktop\projetoTese\HybridRenderer\x64\Release\HybridRenderer.ipdb
C:\Users\pag\Desktop\projetoTese\HybridRenderer\x64\Release\HybridRenderer.iobj
^C:\Users\pag\Desktop\projetoTese\HybridRenderer\HybridRenderer\HybridRenderer.vcxproj
C:\Users\pag\Desktop\projetoTese\HybridRenderer\x64\Release\HybridRenderer.ipdb
C:\Users\pag\Desktop\projetoTese\HybridRenderer\x64\Release\HybridRenderer.iobj
^C:\Users\pag\Desktop\projetoTese\HybridRenderer\HybridRenderer\HybridRenderer.vcxproj
C:\Users\pag\Desktop\projetoTese\HybridRenderer\x64\Release\HybridRenderer.ipdb
C:\Users\pag\Desktop\projetoTese\HybridRenderer\x64\Release\HybridRenderer.iobj
^C:\Users\pag\Desktop\projetoTese\HybridRenderer\HybridRenderer\HybridRenderer.vcxproj
C:\Users\pag\Desktop\projetoTese\HybridRenderer\x64\Release\HybridRenderer.ipdb
C:\Users\pag\Desktop\projetoTese\HybridRenderer\x64\Release\HybridRenderer.iobj
^C:\Users\pag\Desktop\projetoTese\HybridRenderer\HybridRenderer\HybridRenderer.vcxproj
C:\Users\pag\Desktop\projetoTese\HybridRenderer\x64\Release\HybridRenderer.ipdb
C:\Users\pag\Desktop\projetoTese\HybridRenderer\x64\Release\HybridRenderer.iobj
^C:\Users\pag\Desktop\projetoTese\HybridRenderer\HybridRenderer\HybridRenderer.vcxproj
C:\Users\pag\Desktop\projetoTese\HybridRenderer\x64\Release\HybridRenderer.ipdb
C:\Users\pag\Desktop\projetoTese\HybridRenderer\x64\Release\HybridRenderer.iobj
^C:\Users\pag\Desktop\projetoTese\HybridRenderer\HybridRenderer\HybridRenderer.vcxproj
C:\Users\pag\Desktop\projetoTese\HybridRenderer\x64\Release\HybridRenderer.ipdb
C:\Users\pag\Desktop\projetoTese\HybridRenderer\x64\Release\HybridRenderer.iobj
^C:\Users\pag\Desktop\projetoTese\HybridRenderer\HybridRenderer\HybridRenderer.vcxproj
C:\Users\pag\Desktop\projetoTese\HybridRenderer\x64\Release\HybridRenderer.ipdb
C:\Users\pag\Desktop\projetoTese\HybridRenderer\x64\Release\HybridRenderer.iobj
^C:\Users\pag\Desktop\projetoTese\HybridRenderer\HybridRenderer\HybridRenderer.vcxproj
C:\Users\pag\Desktop\projetoTese\HybridRenderer\x64\Release\HybridRenderer.ipdb
C:\Users\pag\Desktop\projetoTese\HybridRenderer\x64\Release\HybridRenderer.iobj
^C:\Users\pag\Desktop\projetoTese\HybridRenderer\HybridRenderer\HybridRenderer.vcxproj
C:\Users\pag\Desktop\projetoTese\HybridRenderer\x64\Release\HybridRenderer.ipdb
C:\Users\pag\Desktop\projetoTese\HybridRenderer\x64\Release\HybridRenderer.iobj
^C:\Users\pag\Desktop\projetoTese\HybridRenderer\HybridRenderer\HybridRenderer.vcxproj
C:\Users\pag\Desktop\projetoTese\HybridRenderer\x64\Release\HybridRenderer.ipdb
C:\Users\pag\Desktop\projetoTese\HybridRenderer\x64\Release\HybridRenderer.iobj
^C:\Users\pag\Desktop\projetoTese\HybridRenderer\HybridRenderer\HybridRenderer.vcxproj
C:\Users\pag\Desktop\projetoTese\HybridRenderer\x64\Release\HybridRenderer.ipdb
C:\Users\pag\Desktop\projetoTese\HybridRenderer\x64\Release\HybridRenderer.iobj
^C:\Users\pag\Desktop\projetoTese\HybridRenderer\HybridRenderer\HybridRenderer.vcxproj
C:\Users\pag\Desktop\projetoTese\HybridRenderer\x64\Release\HybridRenderer.ipdb
C:\Users\pag\Desktop\projetoTese\HybridRenderer\x64\Release\HybridRenderer.iobj
^C:\Users\pag\Desktop\projetoTese\HybridRenderer\HybridRenderer\HybridRenderer.vcxproj
C:\Users\pag\Desktop\projetoTese\HybridRenderer\x64\Release\HybridRenderer.ipdb
C:\Users\pag\Desktop\projetoTese\HybridRenderer\x64\Release\HybridRenderer.iobj
^C:\Users\pag\Desktop\projetoTese\HybridRenderer\HybridRenderer\HybridRenderer.vcxproj
C:\Users\pag\Desktop\projetoTese\HybridRenderer\x64\Release\HybridRenderer.ipdb
C:\Users\pag\Desktop\projetoTese\HybridRenderer\x64\Release\HybridRenderer.iobj
^C:\Users\pag\Desktop\projetoTese\HybridRenderer\HybridRenderer\HybridRenderer.vcxproj
C:\Users\pag\Desktop\projetoTese\HybridRenderer\x64\Release\HybridRenderer.ipdb
C:\Users\pag\Desktop\projetoTese\HybridRenderer\x64\Release\HybridRenderer.iobj
^C:\Users\pag\Desktop\projetoTese\HybridRenderer\HybridRenderer\HybridRenderer.vcxproj
C:\Users\pag\Desktop\projetoTese\HybridRenderer\x64\Release\HybridRenderer.ipdb
C:\Users\pag\Desktop\projetoTese\HybridRenderer\x64\Release\HybridRenderer.iobj
^C:\Users\pag\Desktop\projetoTese\HybridRenderer\HybridRenderer\HybridRenderer.vcxproj
C:\Users\pag\Desktop\projetoTese\HybridRenderer\x64\Release\HybridRenderer.ipdb
C:\Users\pag\Desktop\projetoTese\HybridRenderer\x64\Release\HybridRenderer.iobj
^C:\Users\pag\Desktop\projetoTese\HybridRenderer\HybridRenderer\HybridRenderer.vcxproj
C:\Users\pag\Desktop\projetoTese\HybridRenderer\x64\Release\HybridRenderer.ipdb
C:\Users\pag\Desktop\projetoTese\HybridRenderer\x64\Release\HybridRenderer.iobj
^C:\Users\pag\Desktop\projetoTese\HybridRenderer\HybridRenderer\HybridRenderer.vcxproj
C:\Users\pag\Desktop\projetoTese\HybridRenderer\x64\Release\HybridRenderer.ipdb
C:\Users\pag\Desktop\projetoTese\HybridRenderer\x64\Release\HybridRenderer.iobj
^C:\Users\pag\Desktop\projetoTese\HybridRenderer\HybridRenderer\HybridRenderer.vcxproj
C:\Users\pag\Desktop\projetoTese\HybridRenderer\x64\Release\HybridRenderer.ipdb
C:\Users\pag\Desktop\projetoTese\HybridRenderer\x64\Release\HybridRenderer.iobj
^C:\Users\pag\Desktop\projetoTese\HybridRenderer\HybridRenderer\HybridRenderer.vcxproj
C:\Users\pag\Desktop\projetoTese\HybridRenderer\x64\Release\HybridRenderer.ipdb
C:\Users\pag\Desktop\projetoTese\HybridRenderer\x64\Release\HybridRenderer.iobj
^C:\Users\pag\Desktop\projetoTese\HybridRenderer\HybridRenderer\HybridRenderer.vcxproj
C:\Users\pag\Desktop\projetoTese\HybridRenderer\x64\Release\HybridRenderer.ipdb
C:\Users\pag\Desktop\projetoTese\HybridRenderer\x64\Release\HybridRenderer.iobj
^C:\Users\pag\Desktop\projetoTese\HybridRenderer\HybridRenderer\HybridRenderer.vcxproj
C:\Users\pag\Desktop\projetoTese\HybridRenderer\x64\Release\HybridRenderer.ipdb
C:\Users\pag\Desktop\projetoTese\HybridRenderer\x64\Release\HybridRenderer.iobj
^C:\Users\pag\Desktop\projetoTese\HybridRenderer\HybridRenderer\HybridRenderer.vcxproj
C:\Users\pag\Desktop\projetoTese\HybridRenderer\x64\Release\HybridRenderer.ipdb
C:\Users\pag\Desktop\projetoTese\HybridRenderer\x64\Release\HybridRenderer.iobj
^C:\Users\pag\Desktop\projetoTese\HybridRenderer\HybridRenderer\HybridRenderer.vcxproj
C:\Users\pag\Desktop\projetoTese\HybridRenderer\x64\Release\HybridRenderer.ipdb
C:\Users\pag\Desktop\projetoTese\HybridRenderer\x64\Release\HybridRenderer.iobj
^C:\Users\pag\Desktop\projetoTese\HybridRenderer\HybridRenderer\HybridRenderer.vcxproj
C:\Users\pag\Desktop\projetoTese\HybridRenderer\x64\Release\HybridRenderer.ipdb
C:\Users\pag\Desktop\projetoTese\HybridRenderer\x64\Release\HybridRenderer.iobj
^C:\Users\pag\Desktop\projetoTese\HybridRenderer\HybridRenderer\HybridRenderer.vcxproj
C:\Users\pag\Desktop\projetoTese\HybridRenderer\x64\Release\HybridRenderer.ipdb
C:\Users\pag\Desktop\projetoTese\HybridRenderer\x64\Release\HybridRenderer.iobj
^C:\Users\pag\Desktop\projetoTese\HybridRenderer\HybridRenderer\HybridRenderer.vcxproj
C:\Users\pag\Desktop\projetoTese\HybridRenderer\x64\Release\HybridRenderer.ipdb
C:\Users\pag\Desktop\projetoTese\HybridRenderer\x64\Release\HybridRenderer.iobj
^C:\Users\pag\Desktop\projetoTese\HybridRenderer\HybridRenderer\HybridRenderer.vcxproj
C:\Users\pag\Desktop\projetoTese\HybridRenderer\x64\Release\HybridRenderer.ipdb
C:\Users\pag\Desktop\projetoTese\HybridRenderer\x64\Release\HybridRenderer.iobj
^C:\Users\pag\Desktop\projetoTese\HybridRenderer\HybridRenderer\HybridRenderer.vcxproj
C:\Users\pag\Desktop\projetoTese\HybridRenderer\x64\Release\HybridRenderer.ipdb
C:\Users\pag\Desktop\projetoTese\HybridRenderer\x64\Release\HybridRenderer.iobj
^C:\Users\pag\Desktop\projetoTese\HybridRenderer\HybridRenderer\HybridRenderer.vcxproj
C:\Users\pag\Desktop\projetoTese\HybridRenderer\x64\Release\HybridRenderer.ipdb
C:\Users\pag\Desktop\projetoTese\HybridRenderer\x64\Release\HybridRenderer.iobj
^C:\Users\pag\Desktop\projetoTese\HybridRenderer\HybridRenderer\HybridRenderer.vcxproj
C:\Users\pag\Desktop\projetoTese\HybridRenderer\x64\Release\HybridRenderer.ipdb
C:\Users\pag\Desktop\projetoTese\HybridRenderer\x64\Release\HybridRenderer.iobj
^C:\Users\pag\Desktop\projetoTese\HybridRenderer\HybridRenderer\HybridRenderer.vcxproj
C:\Users\pag\Desktop\projetoTese\HybridRenderer\x64\Release\HybridRenderer.ipdb
C:\Users\pag\Desktop\projetoTese\HybridRenderer\x64\Release\HybridRenderer.iobj
^C:\Users\pag\Desktop\projetoTese\HybridRenderer\HybridRenderer\HybridRenderer.vcxproj
C:\Users\pag\Desktop\projetoTese\HybridRenderer\x64\Release\HybridRenderer.ipdb
C:\Users\pag\Desktop\projetoTese\HybridRenderer\x64\Release\HybridRenderer.iobj
^C:\Users\pag\Desktop\projetoTese\HybridRenderer\HybridRenderer\HybridRenderer.vcxproj
C:\Users\pag\Desktop\projetoTese\HybridRenderer\x64\Release\HybridRenderer.ipdb
C:\Users\pag\Desktop\projetoTese\HybridRenderer\x64\Release\HybridRenderer.iobj
^C:\Users\pag\Desktop\projetoTese\HybridRenderer\HybridRenderer\HybridRenderer.vcxproj
C:\Users\pag\Desktop\projetoTese\HybridRenderer\x64\Release\HybridRenderer.ipdb
C:\Users\pag\Desktop\projetoTese\HybridRenderer\x64\Release\HybridRenderer.iobj
^C:\Users\pag\Desktop\projetoTese\HybridRenderer\HybridRenderer\HybridRenderer.vcxproj
C:\Users\pag\Desktop\projetoTese\HybridRenderer\x64\Release\HybridRenderer.ipdb
C:\Users\pag\Desktop\projetoTese\HybridRenderer\x64\Release\HybridRenderer.iobj
^C:\Users\pag\Desktop\projetoTese\HybridRenderer\HybridRenderer\HybridRenderer.vcxproj
C:\Users\pag\Desktop\projetoTese\HybridRenderer\x64\Release\HybridRenderer.ipdb
C:\Users\pag\Desktop\projetoTese\HybridRenderer\x64\Release\HybridRenderer.iobj
^C:\Users\pag\Desktop\projetoTese\HybridRenderer\HybridRenderer\HybridRenderer.vcxproj
C:\Users\pag\Desktop\projetoTese\HybridRenderer\x64\Release\HybridRenderer.ipdb
C:\Users\pag\Desktop\projetoTese\HybridRenderer\x64\Release\HybridRenderer.iobj
^C:\Users\pag\Desktop\projetoTese\HybridRenderer\HybridRenderer\HybridRenderer.vcxproj
C:\Users\pag\Desktop\projetoTese\HybridRenderer\x64\Release\HybridRenderer.ipdb
C:\Users\pag\Desktop\projetoTese\HybridRenderer\x64\Release\HybridRenderer.iobj
^C:\Users\pag\Desktop\projetoTese\HybridRenderer\HybridRenderer\HybridRenderer.vcxproj
C:\Users\pag\Desktop\projetoTese\HybridRenderer\x64\Release\HybridRenderer.ipdb
C:\Users\pag\Desktop\projetoTese\HybridRenderer\x64\Release\HybridRenderer.iobj
^C:\Users\pag\Desktop\projetoTese\HybridRenderer\HybridRenderer\HybridRenderer.vcxproj
C:\Users\pag\Desktop\projetoTese\HybridRenderer\x64\Release\HybridRenderer.ipdb
C:\Users\pag\Desktop\projetoTese\HybridRenderer\x64\Release\HybridRenderer.iobj
^C:\Users\pag\Desktop\projetoTese\HybridRenderer\HybridRenderer\HybridRenderer.vcxproj
C:\Users\pag\Desktop\projetoTese\HybridRenderer\x64\Release\HybridRenderer.ipdb
C:\Users\pag\Desktop\projetoTese\HybridRenderer\x64\Release\HybridRenderer.iobj
^C:\Users\pag\Desktop\projetoTese\HybridRenderer\HybridRenderer\HybridRenderer.vcxproj
C:\Users\pag\Desktop\projetoTese\HybridRenderer\x64\Release\HybridRenderer.ipdb
C:\Users\pag\Desktop\projetoTese\HybridRenderer\x64\Release\HybridRenderer.iobj
^C:\Users\pag\Desktop\projetoTese\HybridRenderer\HybridRenderer\HybridRenderer.vcxproj
C:\Users\pag\Desktop\projetoTese\HybridRenderer\x64\Release\HybridRenderer.ipdb
C:\Users\pag\Desktop\projetoTese\HybridRenderer\x64\Release\HybridRenderer.iobj
^C:\Users\pag\Desktop\projetoTese\HybridRenderer\HybridRenderer\HybridRenderer.vcxproj
C:\Users\pag\Desktop\projetoTese\HybridRenderer\x64\Release\HybridRenderer.ipdb
C:\Users\pag\Desktop\projetoTese\HybridRenderer\x64\Release\HybridRenderer.iobj
^C:\Users\pag\Desktop\projetoTese\HybridRenderer\HybridRenderer\HybridRenderer.vcxproj
C:\Users\pag\Desktop\projetoTese\HybridRenderer\x64\Release\HybridRenderer.ipdb
C:\Users\pag\Desktop\projetoTese\HybridRenderer\x64\Release\HybridRenderer.iobj
^C:\Users\pag\Desktop\projetoTese\HybridRenderer\HybridRenderer\HybridRenderer.vcxproj
C:\Users\pag\Desktop\projetoTese\HybridRenderer\x64\Release\HybridRenderer.ipdb
C:\Users\pag\Desktop\projetoTese\HybridRenderer\x64\Release\HybridRenderer.iobj
^C:\Users\pag\Desktop\projetoTese\HybridRenderer\HybridRenderer\HybridRenderer.vcxproj
C:\Users\pag\Desktop\projetoTese\HybridRenderer\x64\Release\HybridRenderer.ipdb
C:\Users\pag\Desktop\projetoTese\HybridRenderer\x64\Release\HybridRenderer.iobj
^C:\Users\pag\Desktop\projetoTese\HybridRenderer\HybridRenderer\HybridRenderer.vcxproj
C:\Users\pag\Desktop\projetoTese\HybridRenderer\x64\Release\HybridRenderer.ipdb
C:\Users\pag\Desktop\projetoTese\HybridRenderer\x64\Release\HybridRenderer.iobj
^C:\Users\pag\Desktop\projetoTese\HybridRenderer\HybridRenderer\HybridRenderer.vcxproj
C:\Users\pag\Desktop\projetoTese\HybridRenderer\x64\Release\HybridRenderer.ipdb
C:\Users\pag\Desktop\projetoTese\HybridRenderer\x64\Release\HybridRenderer.iobj
^C:\Users\pag\Desktop\projetoTese\HybridRenderer\HybridRenderer\HybridRenderer.vcxproj
C:\Users\pag\Desktop\projetoTese\HybridRenderer\x64\Release\HybridRenderer.ipdb
C:\Users\pag\Desktop\projetoTese\HybridRenderer\x64\Release\HybridRenderer.iobj
^C:\Users\pag\Desktop\projetoTese\HybridRenderer\HybridRenderer\HybridRenderer.vcxproj
C:\Users\pag\Desktop\projetoTese\HybridRenderer\x64\Release\HybridRenderer.ipdb
C:\Users\pag\Desktop\projetoTese\HybridRenderer\x64\Release\HybridRenderer.iobj
^C:\Users\pag\Desktop\projetoTese\HybridRenderer\HybridRenderer\HybridRenderer.vcxproj
C:\Users\pag\Desktop\projetoTese\HybridRenderer\x64\Release\HybridRenderer.ipdb
C:\Users\pag\Desktop\projetoTese\HybridRenderer\x64\Release\HybridRenderer.iobj
^C:\Users\pag\Desktop\projetoTese\HybridRenderer\HybridRenderer\HybridRenderer.vcxproj
C:\Users\pag\Desktop\projetoTese\HybridRenderer\x64\Release\HybridRenderer.ipdb
C:\Users\pag\Desktop\projetoTese\HybridRenderer\x64\Release\HybridRenderer.iobj
^C:\Users\pag\Desktop\projetoTese\HybridRenderer\HybridRenderer\HybridRenderer.vcxproj
C:\Users\pag\Desktop\projetoTese\HybridRenderer\x64\Release\HybridRenderer.ipdb
C:\Users\pag\Desktop\projetoTese\HybridRenderer\x64\Release\HybridRenderer.iobj
^C:\Users\pag\Desktop\projetoTese\HybridRenderer\HybridRenderer\HybridRenderer.vcxproj
C:\Users\pag\Desktop\projetoTese\HybridRenderer\x64\Release\HybridRenderer.ipdb
C:\Users\pag\Desktop\projetoTese\HybridRenderer\x64\Release\HybridRenderer.iobj
^C:\Users\pag\Desktop\projetoTese\HybridRenderer\HybridRenderer\HybridRenderer.vcxproj
C:\Users\pag\Desktop\projetoTese\HybridRenderer\x64\Release\HybridRenderer.ipdb
C:\Users\pag\Desktop\projetoTese\HybridRenderer\x64\Release\HybridRenderer.iobj
^C:\Users\pag\Desktop\projetoTese\HybridRenderer\HybridRenderer\HybridRenderer.vcxproj
C:\Users\pag\Desktop\projetoTese\HybridRenderer\x64\Release\HybridRenderer.ipdb
C:\Users\pag\Desktop\projetoTese\HybridRenderer\x64\Release\HybridRenderer.iobj
^C:\Users\pag\Desktop\projetoTese\HybridRenderer\HybridRenderer\HybridRenderer.vcxproj
C:\Users\pag\Desktop\projetoTese\HybridRenderer\x64\Release\HybridRenderer.ipdb
C:\Users\pag\Desktop\projetoTese\HybridRenderer\x64\Release\HybridRenderer.iobj
^C:\Users\pag\Desktop\projetoTese\HybridRenderer\HybridRenderer\HybridRenderer.vcxproj
C:\Users\pag\Desktop\projetoTese\HybridRenderer\x64\Release\HybridRenderer.ipdb
C:\Users\pag\Desktop\projetoTese\HybridRenderer\x64\Release\HybridRenderer.iobj
^C:\Users\pag\Desktop\projetoTese\HybridRenderer\HybridRenderer\HybridRenderer.vcxproj
C:\Users\pag\Desktop\projetoTese\HybridRenderer\x64\Release\HybridRenderer.ipdb
C:\Users\pag\Desktop\projetoTese\HybridRenderer\x64\Release\HybridRenderer.iobj
^C:\Users\pag\Desktop\projetoTese\HybridRenderer\HybridRenderer\HybridRenderer.vcxproj
C:\Users\pag\Desktop\projetoTese\HybridRenderer\x64\Release\HybridRenderer.ipdb
C:\Users\pag\Desktop\projetoTese\HybridRenderer\x64\Release\HybridRenderer.iobj
^C:\Users\pag\Desktop\projetoTese\HybridRenderer\HybridRenderer\HybridRenderer.vcxproj
C:\Users\pag\Desktop\projetoTese\HybridRenderer\x64\Release\HybridRenderer.ipdb
C:\Users\pag\Desktop\projetoTese\HybridRenderer\x64\Release\HybridRenderer.iobj
^C:\Users\pag\Desktop\projetoTese\HybridRenderer\HybridRenderer\HybridRenderer.vcxproj
C:\Users\pag\Desktop\projetoTese\HybridRenderer\x64\Release\HybridRenderer.ipdb
C:\Users\pag\Desktop\projetoTese\HybridRenderer\x64\Release\HybridRenderer.iobj
^C:\Users\pag\Desktop\projetoTese\HybridRenderer\HybridRenderer\HybridRenderer.vcxproj
C:\Users\pag\Desktop\projetoTese\HybridRenderer\x64\Release\HybridRenderer.ipdb
C:\Users\pag\Desktop\projetoTese\HybridRenderer\x64\Release\HybridRenderer.iobj
^C:\Users\pag\Desktop\projetoTese\HybridRenderer\HybridRenderer\HybridRenderer.vcxproj
C:\Users\pag\Desktop\projetoTese\HybridRenderer\x64\Release\HybridRenderer.ipdb
C:\Users\pag\Desktop\projetoTese\HybridRenderer\x64\Release\HybridRenderer.iobj
^C:\Users\pag\Desktop\projetoTese\HybridRenderer\HybridRenderer\HybridRenderer.vcxproj
C:\Users\pag\Desktop\projetoTese\HybridRenderer\x64\Release\HybridRenderer.ipdb
C:\Users\pag\Desktop\projetoTese\HybridRenderer\x64\Release\HybridRenderer.iobj
^C:\Users\pag\Desktop\projetoTese\HybridRenderer\HybridRenderer\HybridRenderer.vcxproj
C:\Users\pag\Desktop\projetoTese\HybridRenderer\x64\Release\HybridRenderer.ipdb
C:\Users\pag\Desktop\projetoTese\HybridRenderer\x64\Release\HybridRenderer.iobj
^C:\Users\pag\Desktop\projetoTese\HybridRenderer\HybridRenderer\HybridRenderer.vcxproj
C:\Users\pag\Desktop\projetoTese\HybridRenderer\x64\Release\HybridRenderer.ipdb
C:\Users\pag\Desktop\projetoTese\HybridRenderer\x64\Release\HybridRenderer.iobj
^C:\Users\pag\Desktop\projetoTese\HybridRenderer\HybridRenderer\HybridRenderer.vcxproj
C:\Users\pag\Desktop\projetoTese\HybridRenderer\x64\Release\HybridRenderer.ipdb
C:\Users\pag\Desktop\projetoTese\HybridRenderer\x64\Release\HybridRenderer.iobj
^C:\Users\pag\Desktop\projetoTese\HybridRenderer\HybridRenderer\HybridRenderer.vcxproj
C:\Users\pag\Desktop\projetoTese\HybridRenderer\x64\Release\HybridRenderer.ipdb
C:\Users\pag\Desktop\projetoTese\HybridRenderer\x64\Release\HybridRenderer.iobj
^C:\Users\pag\Desktop\projetoTese\HybridRenderer\HybridRenderer\HybridRenderer.vcxproj
C:\Users\pag\Desktop\projetoTese\HybridRenderer\x64\Release\HybridRenderer.ipdb
C:\Users\pag\Desktop\projetoTese\HybridRenderer\x64\Release\HybridRenderer.iobj
^C:\Users\pag\Desktop\projetoTese\HybridRenderer\HybridRenderer\HybridRenderer.vcxproj
C:\Users\pag\Desktop\projetoTese\HybridRenderer\x64\Release\HybridRenderer.ipdb
C:\Users\pag\Desktop\projetoTese\HybridRenderer\x64\Release\HybridRenderer.iobj
^C:\Users\pag\Desktop\projetoTese\HybridRenderer\HybridRenderer\HybridRenderer.vcxproj
C:\Users\pag\Desktop\projetoTese\HybridRenderer\x64\Release\HybridRenderer.ipdb
C:\Users\pag\Desktop\projetoTese\HybridRenderer\x64\Release\HybridRenderer.iobj
^C:\Users\pag\Desktop\projetoTese\HybridRenderer\HybridRenderer\HybridRenderer.vcxproj
C:\Users\pag\Desktop\projetoTese\HybridRenderer\x64\Release\HybridRenderer.ipdb
C:\Users\pag\Desktop\projetoTese\HybridRenderer\x64\Release\HybridRenderer.iobj
^C:\Users\pag\Desktop\projetoTese\HybridRenderer\HybridRenderer\HybridRenderer.vcxproj
C:\Users\pag\Desktop\projetoTese\HybridRenderer\x64\Release\HybridRenderer.ipdb
C:\Users\pag\Desktop\projetoTese\HybridRenderer\x64\Release\HybridRenderer.iobj
^C:\Users\pag\Desktop\projetoTese\HybridRenderer\HybridRenderer\HybridRenderer.vcxproj
C:\Users\pag\Desktop\projetoTese\HybridRenderer\x64\Release\HybridRenderer.ipdb
C:\Users\pag\Desktop\projetoTese\HybridRenderer\x64\Release\HybridRenderer.iobj
^C:\Users\pag\Desktop\projetoTese\HybridRenderer\HybridRenderer\HybridRenderer.vcxproj
C:\Users\pag\Desktop\projetoTese\HybridRenderer\x64\Release\HybridRenderer.ipdb
C:\Users\pag\Desktop\projetoTese\HybridRenderer\x64\Release\HybridRenderer.iobj
^C:\Users\pag\Desktop\projetoTese\HybridRenderer\HybridRenderer\HybridRenderer.vcxproj
C:\Users\pag\Desktop\projetoTese\HybridRenderer\x64\Release\HybridRenderer.ipdb
C:\Users\pag\Desktop\projetoTese\HybridRenderer\x64\Release\HybridRenderer.iobj
^C:\Users\pag\Desktop\projetoTese\HybridRenderer\HybridRenderer\HybridRenderer.vcxproj
C:\Users\pag\Desktop\projetoTese\HybridRenderer\x64\Release\HybridRenderer.ipdb
C:\Users\pag\Desktop\projetoTese\HybridRenderer\x64\Release\HybridRenderer.iobj
^C:\Users\pag\Desktop\projetoTese\HybridRenderer\HybridRenderer\HybridRenderer.vcxproj
C:\Users\pag\Desktop\projetoTese\HybridRenderer\x64\Release\HybridRenderer.ipdb
C:\Users\pag\Desktop\projetoTese\HybridRenderer\x64\Release\HybridRenderer.iobj
^C:\Users\pag\Desktop\projetoTese\HybridRenderer\HybridRenderer\HybridRenderer.vcxproj
C:\Users\pag\Desktop\projetoTese\HybridRenderer\x64\Release\HybridRenderer.ipdb
C:\Users\pag\Desktop\projetoTese\HybridRenderer\x64\Release\HybridRenderer.iobj
^C:\Users\pag\Desktop\projetoTese\HybridRenderer\HybridRenderer\HybridRenderer.vcxproj
C:\Users\pag\Desktop\projetoTese\HybridRenderer\x64\Release\HybridRenderer.ipdb
C:\Users\pag\Desktop\projetoTese\HybridRenderer\x64\Release\HybridRenderer.iobj
^C:\Users\pag\Desktop\projetoTese\HybridRenderer\HybridRenderer\HybridRenderer.vcxproj
C:\Users\pag\Desktop\projetoTese\HybridRenderer\x64\Release\HybridRenderer.ipdb
C:\Users\pag\Desktop\projetoTese\HybridRenderer\x64\Release\HybridRenderer.iobj
^C:\Users\pag\Desktop\projetoTese\HybridRenderer\HybridRenderer\HybridRenderer.vcxproj
C:\Users\pag\Desktop\projetoTese\HybridRenderer\x64\Release\HybridRenderer.ipdb
C:\Users\pag\Desktop\projetoTese\HybridRenderer\x64\Release\HybridRenderer.iobj
^C:\Users\pag\Desktop\projetoTese\HybridRenderer\HybridRenderer\HybridRenderer.vcxproj
C:\Users\pag\Desktop\projetoTese\HybridRenderer\x64\Release\HybridRenderer.ipdb
C:\Users\pag\Desktop\projetoTese\HybridRenderer\x64\Release\HybridRenderer.iobj
^C:\Users\pag\Desktop\projetoTese\HybridRenderer\HybridRenderer\HybridRenderer.vcxproj
C:\Users\pag\Desktop\projetoTese\HybridRenderer\x64\Release\HybridRenderer.ipdb
C:\Users\pag\Desktop\projetoTese\HybridRenderer\x64\Release\HybridRenderer.iobj
^C:\Users\pag\Desktop\projetoTese\HybridRenderer\HybridRenderer\HybridRenderer.vcxproj
C:\Users\pag\Desktop\projetoTese\HybridRenderer\x64\Release\HybridRenderer.ipdb
C:\Users\pag\Desktop\projetoTese\HybridRenderer\x64\Release\HybridRenderer.iobj
^C:\Users\pag\Desktop\projetoTese\HybridRenderer\HybridRenderer\HybridRenderer.vcxproj
C:\Users\pag\Desktop\projetoTese\HybridRenderer\x64\Release\HybridRenderer.ipdb
C:\Users\pag\Desktop\projetoTese\HybridRenderer\x64\Release\HybridRenderer.iobj
^C:\Users\pag\Desktop\projetoTese\HybridRenderer\HybridRenderer\HybridRenderer.vcxproj
C:\Users\pag\Desktop\projetoTese\HybridRenderer\x64\Release\HybridRenderer.ipdb
C:\Users\pag\Desktop\projetoTese\HybridRenderer\x64\Release\HybridRenderer.iobj
^C:\Users\pag\Desktop\projetoTese\HybridRenderer\HybridRenderer\HybridRenderer.vcxproj
C:\Users\pag\Desktop\projetoTese\HybridRenderer\x64\Release\HybridRenderer.ipdb
C:\Users\pag\Desktop\projetoTese\HybridRenderer\x64\Release\HybridRenderer.iobj
^C:\Users\pag\Desktop\projetoTese\HybridRenderer\HybridRenderer\HybridRenderer.vcxproj
C:\Users\pag\Desktop\projetoTese\HybridRenderer\x64\Release\HybridRenderer.ipdb
C:\Users\pag\Desktop\projetoTese\HybridRenderer\x64\Release\HybridRenderer.iobj
^C:\Users\pag\Desktop\projetoTese\HybridRenderer\HybridRenderer\HybridRenderer.vcxproj
C:\Users\pag\Desktop\projetoTese\HybridRenderer\x64\Release\HybridRenderer.ipdb
C:\Users\pag\Desktop\projetoTese\HybridRenderer\x64\Release\HybridRenderer.iobj
^C:\Users\pag\Desktop\projetoTese\HybridRenderer\HybridRenderer\HybridRenderer.vcxproj
C:\Users\pag\Desktop\projetoTese\HybridRenderer\x64\Release\HybridRenderer.ipdb
C:\Users\pag\Desktop\projetoTese\HybridRenderer\x64\Release\HybridRenderer.iobj
^C:\Users\pag\Desktop\projetoTese\HybridRenderer\HybridRenderer\HybridRenderer.vcxproj
C:\Users\pag\Desktop\projetoTese\HybridRenderer\x64\Release\HybridRenderer.ipdb
C:\Users\pag\Desktop\projetoTese\HybridRenderer\x64\Release\HybridRenderer.iobj
^C:\Users\pag\Desktop\projetoTese\HybridRenderer\HybridRenderer\HybridRenderer.vcxproj
C:\Users\pag\Desktop\projetoTese\HybridRenderer\x64\Release\HybridRenderer.ipdb
C:\Users\pag\Desktop\projetoTese\HybridRenderer\x64\Release\HybridRenderer.iobj
^C:\Users\pag\Desktop\projetoTese\HybridRenderer\HybridRenderer\HybridRenderer.vcxproj
C:\Users\pag\Desktop\projetoTese\HybridRenderer\x64\Release\HybridRenderer.ipdb
C:\Users\pag\Desktop\projetoTese\HybridRenderer\x64\Release\HybridRenderer.iobj
^C:\Users\pag\Desktop\projetoTese\HybridRenderer\HybridRenderer\HybridRenderer.vcxproj
C:\Users\pag\Desktop\projetoTese\HybridRenderer\x64\Release\HybridRenderer.ipdb
C:\Users\pag\Desktop\projetoTese\HybridRenderer\x64\Release\HybridRenderer.iobj
^C:\Users\pag\Desktop\projetoTese\HybridRenderer\HybridRenderer\HybridRenderer.vcxproj
C:\Users\pag\Desktop\projetoTese\HybridRenderer\x64\Release\HybridRenderer.ipdb
C:\Users\pag\Desktop\projetoTese\HybridRenderer\x64\Release\HybridRenderer.iobj
^C:\Users\pag\Desktop\projetoTese\HybridRenderer\HybridRenderer\HybridRenderer.vcxproj
C:\Users\pag\Desktop\projetoTese\HybridRenderer\x64\Release\HybridRenderer.ipdb
C:\Users\pag\Desktop\projetoTese\HybridRenderer\x64\Release\HybridRenderer.iobj
^C:\Users\pag\Desktop\projetoTese\HybridRenderer\HybridRenderer\HybridRenderer.vcxproj
C:\Users\pag\Desktop\projetoTese\HybridRenderer\x64\Release\HybridRenderer.ipdb
C:\Users\pag\Desktop\projetoTese\HybridRenderer\x64\Release\HybridRenderer.iobj
^C:\Users\pag\Desktop\projetoTese\HybridRenderer\HybridRenderer\HybridRenderer.vcxproj
C:\Users\pag\Desktop\projetoTese\HybridRenderer\x64\Release\HybridRenderer.ipdb
C:\Users\pag\Desktop\projetoTese\HybridRenderer\x64\Release\HybridRenderer.iobj
^C:\Users\pag\Desktop\projetoTese\HybridRenderer\HybridRenderer\HybridRenderer.vcxproj
C:\Users\pag\Desktop\projetoTese\HybridRenderer\x64\Release\HybridRenderer.ipdb
C:\Users\pag\Desktop\projetoTese\HybridRenderer\x64\Release\HybridRenderer.iobj
^C:\Users\pag\Desktop\projetoTese\HybridRenderer\HybridRenderer\HybridRenderer.vcxproj
C:\Users\pag\Desktop\projetoTese\HybridRenderer\x64\Release\HybridRenderer.ipdb
C:\Users\pag\Desktop\projetoTese\HybridRenderer\x64\Release\HybridRenderer.iobj
^C:\Users\pag\Desktop\projetoTese\HybridRenderer\HybridRenderer\HybridRenderer.vcxproj
C:\Users\pag\Desktop\projetoTese\HybridRenderer\x64\Release\HybridRenderer.ipdb
C:\Users\pag\Desktop\projetoTese\HybridRenderer\x64\Release\HybridRenderer.iobj
^C:\Users\pag\Desktop\projetoTese\HybridRenderer\HybridRenderer\HybridRenderer.vcxproj
C:\Users\pag\Desktop\projetoTese\HybridRenderer\x64\Release\HybridRenderer.ipdb
C:\Users\pag\Desktop\projetoTese\HybridRenderer\x64\Release\HybridRenderer.iobj
^C:\Users\pag\Desktop\projetoTese\HybridRenderer\HybridRenderer\HybridRenderer.vcxproj
C:\Users\pag\Desktop\projetoTese\HybridRenderer\x64\Release\HybridRenderer.ipdb
C:\Users\pag\Desktop\projetoTese\HybridRenderer\x64\Release\HybridRenderer.iobj
^C:\Users\pag\Desktop\projetoTese\HybridRenderer\HybridRenderer\HybridRenderer.vcxproj
C:\Users\pag\Desktop\projetoTese\HybridRenderer\x64\Release\HybridRenderer.ipdb
C:\Users\pag\Desktop\projetoTese\HybridRenderer\x64\Release\HybridRenderer.iobj
^C:\Users\pag\Desktop\projetoTese\HybridRenderer\HybridRenderer\HybridRenderer.vcxproj
C:\Users\pag\Desktop\projetoTese\HybridRenderer\x64\Release\HybridRenderer.ipdb
C:\Users\pag\Desktop\projetoTese\HybridRenderer\x64\Release\HybridRenderer.iobj
^C:\Users\pag\Desktop\projetoTese\HybridRenderer\HybridRenderer\HybridRenderer.vcxproj
C:\Users\pag\Desktop\projetoTese\HybridRenderer\x64\Release\HybridRenderer.ipdb
C:\Users\pag\Desktop\projetoTese\HybridRenderer\x64\Release\HybridRenderer.iobj
^C:\Users\pag\Desktop\projetoTese\HybridRenderer\HybridRenderer\HybridRenderer.vcxproj
C:\Users\pag\Desktop\projetoTese\HybridRenderer\x64\Release\HybridRenderer.ipdb
C:\Users\pag\Desktop\projetoTese\HybridRenderer\x64\Release\HybridRenderer.iobj
^C:\Users\pag\Desktop\projetoTese\HybridRenderer\HybridRenderer\HybridRenderer.vcxproj
C:\Users\pag\Desktop\projetoTese\HybridRenderer\x64\Release\HybridRenderer.ipdb
C:\Users\pag\Desktop\projetoTese\HybridRenderer\x64\Release\HybridRenderer.iobj
^C:\Users\pag\Desktop\projetoTese\HybridRenderer\HybridRenderer\HybridRenderer.vcxproj
C:\Users\pag\Desktop\projetoTese\HybridRenderer\x64\Release\HybridRenderer.ipdb
C:\Users\pag\Desktop\projetoTese\HybridRenderer\x64\Release\HybridRenderer.iobj
^C:\Users\pag\Desktop\projetoTese\HybridRenderer\HybridRenderer\HybridRenderer.vcxproj
C:\Users\pag\Desktop\projetoTese\HybridRenderer\x64\Release\HybridRenderer.ipdb
C:\Users\pag\Desktop\projetoTese\HybridRenderer\x64\Release\HybridRenderer.iobj
^C:\Users\pag\Desktop\projetoTese\HybridRenderer\HybridRenderer\HybridRenderer.vcxproj
C:\Users\pag\Desktop\projetoTese\HybridRenderer\x64\Release\HybridRenderer.ipdb
C:\Users\pag\Desktop\projetoTese\HybridRenderer\x64\Release\HybridRenderer.iobj
^C:\Users\pag\Desktop\projetoTese\HybridRenderer\HybridRenderer\HybridRenderer.vcxproj
C:\Users\pag\Desktop\projetoTese\HybridRenderer\x64\Release\HybridRenderer.ipdb
C:\Users\pag\Desktop\projetoTese\HybridRenderer\x64\Release\HybridRenderer.iobj
^C:\Users\pag\Desktop\projetoTese\HybridRenderer\HybridRenderer\HybridRenderer.vcxproj
C:\Users\pag\Desktop\projetoTese\HybridRenderer\x64\Release\HybridRenderer.ipdb
C:\Users\pag\Desktop\projetoTese\HybridRenderer\x64\Release\HybridRenderer.iobj
^C:\Users\pag\Desktop\projetoTese\HybridRenderer\HybridRenderer\HybridRenderer.vcxproj
C:\Users\pag\Desktop\projetoTese\HybridRenderer\x64\Release\HybridRenderer.ipdb
C:\Users\pag\Desktop\projetoTese\HybridRenderer\x64\Release\HybridRenderer.iobj
^C:\Users\pag\Desktop\projetoTese\HybridRenderer\HybridRenderer\HybridRenderer.vcxproj
C:\Users\pag\Desktop\projetoTese\HybridRenderer\x64\Release\HybridRenderer.ipdb
C:\Users\pag\Desktop\projetoTese\HybridRenderer\x64\Release\HybridRenderer.iobj
^C:\Users\pag\Desktop\projetoTese\HybridRenderer\HybridRenderer\HybridRenderer.vcxproj
C:\Users\pag\Desktop\projetoTese\HybridRenderer\x64\Release\HybridRenderer.ipdb
C:\Users\pag\Desktop\projetoTese\HybridRenderer\x64\Release\HybridRenderer.iobj
^C:\Users\pag\Desktop\projetoTese\HybridRenderer\HybridRenderer\HybridRenderer.vcxproj
C:\Users\pag\Desktop\projetoTese\HybridRenderer\x64\Release\HybridRenderer.ipdb
C:\Users\pag\Desktop\projetoTese\HybridRenderer\x64\Release\HybridRenderer.iobj
^C:\Users\pag\Desktop\projetoTese\HybridRenderer\HybridRenderer\HybridRenderer.vcxproj
C:\Users\pag\Desktop\projetoTese\HybridRenderer\x64\Release\HybridRenderer.ipdb
C:\Users\pag\Desktop\projetoTese\HybridRenderer\x64\Release\HybridRenderer.iobj
^C:\Users\pag\Desktop\projetoTese\HybridRenderer\HybridRenderer\HybridRenderer.vcxproj
C:\Users\pag\Desktop\projetoTese\HybridRenderer\x64\Release\HybridRenderer.ipdb
C:\Users\pag\Desktop\projetoTese\HybridRenderer\x64\Release\HybridRenderer.iobj
^C:\Users\pag\Desktop\projetoTese\HybridRenderer\HybridRenderer\HybridRenderer.vcxproj
C:\Users\pag\Desktop\projetoTese\HybridRenderer\x64\Release\HybridRenderer.ipdb
C:\Users\pag\Desktop\projetoTese\HybridRenderer\x64\Release\HybridRenderer.iobj
^C:\Users\pag\Desktop\projetoTese\HybridRenderer\HybridRenderer\HybridRenderer.vcxproj
C:\Users\pag\Desktop\projetoTese\HybridRenderer\x64\Release\HybridRenderer.ipdb
C:\Users\pag\Desktop\projetoTese\HybridRenderer\x64\Release\HybridRenderer.iobj
^C:\Users\pag\Desktop\projetoTese\HybridRenderer\HybridRenderer\HybridRenderer.vcxproj
C:\Users\pag\Desktop\projetoTese\HybridRenderer\x64\Release\HybridRenderer.ipdb
C:\Users\pag\Desktop\projetoTese\HybridRenderer\x64\Release\HybridRenderer.iobj
^C:\Users\pag\Desktop\projetoTese\HybridRenderer\HybridRenderer\HybridRenderer.vcxproj
C:\Users\pag\Desktop\projetoTese\HybridRenderer\x64\Release\HybridRenderer.ipdb
C:\Users\pag\Desktop\projetoTese\HybridRenderer\x64\Release\HybridRenderer.iobj
^C:\Users\pag\Desktop\projetoTese\HybridRenderer\HybridRenderer\HybridRenderer.vcxproj
C:\Users\pag\Desktop\projetoTese\HybridRenderer\x64\Release\HybridRenderer.ipdb
C:\Users\pag\Desktop\projetoTese\HybridRenderer\x64\Release\HybridRenderer.iobj
^C:\Users\pag\Desktop\projetoTese\HybridRenderer\HybridRenderer\HybridRenderer.vcxproj
C:\Users\pag\Desktop\projetoTese\HybridRenderer\x64\Release\HybridRenderer.ipdb
C:\Users\pag\Desktop\projetoTese\HybridRenderer\x64\Release\HybridRenderer.iobj
^C:\Users\pag\Desktop\projetoTese\HybridRenderer\HybridRenderer\HybridRenderer.vcxproj
C:\Users\pag\Desktop\projetoTese\HybridRenderer\x64\Release\HybridRenderer.ipdb
C:\Users\pag\Desktop\projetoTese\HybridRenderer\x64\Release\HybridRenderer.iobj
^C:\Users\pag\Desktop\projetoTese\HybridRenderer\HybridRenderer\HybridRenderer.vcxproj
C:\Users\pag\Desktop\projetoTese\HybridRenderer\x64\Release\HybridRenderer.ipdb
C:\Users\pag\Desktop\projetoTese\HybridRenderer\x64\Release\HybridRenderer.iobj
^C:\Users\pag\Desktop\projetoTese\HybridRenderer\HybridRenderer\HybridRenderer.vcxproj
C:\Users\pag\Desktop\projetoTese\HybridRenderer\x64\Release\HybridRenderer.ipdb
C:\Users\pag\Desktop\projetoTese\HybridRenderer\x64\Release\HybridRenderer.iobj
^C:\Users\pag\Desktop\projetoTese\HybridRenderer\HybridRenderer\HybridRenderer.vcxproj
C:\Users\pag\Desktop\projetoTese\HybridRenderer\x64\Release\HybridRenderer.ipdb
C:\Users\pag\Desktop\projetoTese\HybridRenderer\x64\Release\HybridRenderer.iobj
^C:\Users\pag\Desktop\projetoTese\HybridRenderer\HybridRenderer\HybridRenderer.vcxproj
C:\Users\pag\Desktop\projetoTese\HybridRenderer\x64\Release\HybridRenderer.ipdb
C:\Users\pag\Desktop\projetoTese\HybridRenderer\x64\Release\HybridRenderer.iobj
^C:\Users\pag\Desktop\projetoTese\HybridRenderer\HybridRenderer\HybridRenderer.vcxproj
C:\Users\pag\Desktop\projetoTese\HybridRenderer\x64\Release\HybridRenderer.ipdb
C:\Users\pag\Desktop\projetoTese\HybridRenderer\x64\Release\HybridRenderer.iobj
^C:\Users\pag\Desktop\projetoTese\HybridRenderer\HybridRenderer\HybridRenderer.vcxproj
C:\Users\pag\Desktop\projetoTese\HybridRenderer\x64\Release\HybridRenderer.ipdb
C:\Users\pag\Desktop\projetoTese\HybridRenderer\x64\Release\HybridRenderer.iobj
^C:\Users\pag\Desktop\projetoTese\HybridRenderer\HybridRenderer\HybridRenderer.vcxproj
C:\Users\pag\Desktop\projetoTese\HybridRenderer\x64\Release\HybridRenderer.ipdb
C:\Users\pag\Desktop\projetoTese\HybridRenderer\x64\Release\HybridRenderer.iobj
^C:\Users\pag\Desktop\projetoTese\HybridRenderer\HybridRenderer\HybridRenderer.vcxproj
C:\Users\pag\Desktop\projetoTese\HybridRenderer\x64\Release\HybridRenderer.ipdb
C:\Users\pag\Desktop\projetoTese\HybridRenderer\x64\Release\HybridRenderer.iobj
^C:\Users\pag\Desktop\projetoTese\HybridRenderer\HybridRenderer\HybridRenderer.vcxproj
C:\Users\pag\Desktop\projetoTese\HybridRenderer\x64\Release\HybridRenderer.ipdb
C:\Users\pag\Desktop\projetoTese\HybridRenderer\x64\Release\HybridRenderer.iobj
^C:\Users\pag\Desktop\projetoTese\HybridRenderer\HybridRenderer\HybridRenderer.vcxproj
C:\Users\pag\Desktop\projetoTese\HybridRenderer\x64\Release\HybridRenderer.ipdb
C:\Users\pag\Desktop\projetoTese\HybridRenderer\x64\Release\HybridRenderer.iobj
^C:\Users\pag\Desktop\projetoTese\HybridRenderer\HybridRenderer\HybridRenderer.vcxproj
C:\Users\pag\Desktop\projetoTese\HybridRenderer\x64\Release\HybridRenderer.ipdb
C:\Users\pag\Desktop\projetoTese\HybridRenderer\x64\Release\HybridRenderer.iobj
^C:\Users\pag\Desktop\projetoTese\HybridRenderer\HybridRenderer\HybridRenderer.vcxproj
C:\Users\pag\Desktop\projetoTese\HybridRenderer\x64\Release\HybridRenderer.ipdb
C:\Users\pag\Desktop\projetoTese\HybridRenderer\x64\Release\HybridRenderer.iobj
^C:\Users\pag\Desktop\projetoTese\HybridRenderer\HybridRenderer\HybridRenderer.vcxproj
C:\Users\pag\Desktop\projetoTese\HybridRenderer\x64\Release\HybridRenderer.ipdb
C:\Users\pag\Desktop\projetoTese\HybridRenderer\x64\Release\HybridRenderer.iobj
^C:\Users\pag\Desktop\projetoTese\HybridRenderer\HybridRenderer\HybridRenderer.vcxproj
C:\Users\pag\Desktop\projetoTese\HybridRenderer\x64\Release\HybridRenderer.ipdb
C:\Users\pag\Desktop\projetoTese\HybridRenderer\x64\Release\HybridRenderer.iobj
^C:\Users\pag\Desktop\projetoTese\HybridRenderer\HybridRenderer\HybridRenderer.vcxproj
C:\Users\pag\Desktop\projetoTese\HybridRenderer\x64\Release\HybridRenderer.ipdb
C:\Users\pag\Desktop\projetoTese\HybridRenderer\x64\Release\HybridRenderer.iobj
^C:\Users\pag\Desktop\projetoTese\HybridRenderer\HybridRenderer\HybridRenderer.vcxproj
C:\Users\pag\Desktop\projetoTese\HybridRenderer\x64\Release\HybridRenderer.ipdb
C:\Users\pag\Desktop\projetoTese\HybridRenderer\x64\Release\HybridRenderer.iobj
^C:\Users\pag\Desktop\projetoTese\HybridRenderer\HybridRenderer\HybridRenderer.vcxproj
C:\Users\pag\Desktop\projetoTese\HybridRenderer\x64\Release\HybridRenderer.ipdb
C:\Users\pag\Desktop\projetoTese\HybridRenderer\x64\Release\HybridRenderer.iobj
^C:\Users\pag\Desktop\projetoTese\HybridRenderer\HybridRenderer\HybridRenderer.vcxproj
C:\Users\pag\Desktop\projetoTese\HybridRenderer\x64\Release\HybridRenderer.ipdb
C:\Users\pag\Desktop\projetoTese\HybridRenderer\x64\Release\HybridRenderer.iobj
^C:\Users\pag\Desktop\projetoTese\HybridRenderer\HybridRenderer\HybridRenderer.vcxproj
C:\Users\pag\Desktop\projetoTese\HybridRenderer\x64\Release\HybridRenderer.ipdb
C:\Users\pag\Desktop\projetoTese\HybridRenderer\x64\Release\HybridRenderer.iobj
^C:\Users\pag\Desktop\projetoTese\HybridRenderer\HybridRenderer\HybridRenderer.vcxproj
C:\Users\pag\Desktop\projetoTese\HybridRenderer\x64\Release\HybridRenderer.ipdb
C:\Users\pag\Desktop\projetoTese\HybridRenderer\x64\Release\HybridRenderer.iobj
^C:\Users\pag\Desktop\projetoTese\HybridRenderer\HybridRenderer\HybridRenderer.vcxproj
C:\Users\pag\Desktop\projetoTese\HybridRenderer\x64\Release\HybridRenderer.ipdb
C:\Users\pag\Desktop\projetoTese\HybridRenderer\x64\Release\HybridRenderer.iobj
^C:\Users\pag\Desktop\projetoTese\HybridRenderer\HybridRenderer\HybridRenderer.vcxproj
C:\Users\pag\Desktop\projetoTese\HybridRenderer\x64\Release\HybridRenderer.ipdb
C:\Users\pag\Desktop\projetoTese\HybridRenderer\x64\Release\HybridRenderer.iobj
